; NOTE: Assertions have been autogenerated by utils/update_analyze_test_checks.py
; RUN: opt < %s -mtriple=x86_64-unknown-linux-gnu -passes="print<cost-model>" 2>&1 -disable-output -cost-kind=latency -mattr=+sse2 | FileCheck %s -check-prefixes=CHECK,SSE,SSE2
; RUN: opt < %s -mtriple=x86_64-unknown-linux-gnu -passes="print<cost-model>" 2>&1 -disable-output -cost-kind=latency -mattr=+ssse3 | FileCheck %s -check-prefixes=CHECK,SSE,SSSE3
; RUN: opt < %s -mtriple=x86_64-unknown-linux-gnu -passes="print<cost-model>" 2>&1 -disable-output -cost-kind=latency -mattr=+sse4.2 | FileCheck %s -check-prefixes=CHECK,SSE,SSE42
; RUN: opt < %s -mtriple=x86_64-unknown-linux-gnu -passes="print<cost-model>" 2>&1 -disable-output -cost-kind=latency -mattr=+xop | FileCheck %s -check-prefixes=CHECK,XOP
; RUN: opt < %s -mtriple=x86_64-unknown-linux-gnu -passes="print<cost-model>" 2>&1 -disable-output -cost-kind=latency -mattr=+avx | FileCheck %s -check-prefixes=CHECK,AVX1
; RUN: opt < %s -mtriple=x86_64-unknown-linux-gnu -passes="print<cost-model>" 2>&1 -disable-output -cost-kind=latency -mattr=+avx2 | FileCheck %s -check-prefixes=CHECK,AVX2
; RUN: opt < %s -mtriple=x86_64-unknown-linux-gnu -passes="print<cost-model>" 2>&1 -disable-output -cost-kind=latency -mattr=+avx512f | FileCheck %s --check-prefixes=CHECK,AVX512,AVX512F
; RUN: opt < %s -mtriple=x86_64-unknown-linux-gnu -passes="print<cost-model>" 2>&1 -disable-output -cost-kind=latency -mattr=+avx512f,+avx512bw | FileCheck %s --check-prefixes=CHECK,AVX512,AVX512BW
; RUN: opt < %s -mtriple=x86_64-unknown-linux-gnu -passes="print<cost-model>" 2>&1 -disable-output -cost-kind=latency -mattr=+avx512f,+avx512bw,+avx512vbmi | FileCheck %s --check-prefixes=CHECK,AVX512,AVX512VBMI
;
; RUN: opt < %s -mtriple=x86_64-unknown-linux-gnu -passes="print<cost-model>" 2>&1 -disable-output -cost-kind=latency -mcpu=slm | FileCheck %s --check-prefixes=CHECK,SSE,SSE42
; RUN: opt < %s -mtriple=x86_64-unknown-linux-gnu -passes="print<cost-model>" 2>&1 -disable-output -cost-kind=latency -mcpu=goldmont | FileCheck %s --check-prefixes=CHECK,SSE,SSE42
; RUN: opt < %s -mtriple=x86_64-unknown-linux-gnu -passes="print<cost-model>" 2>&1 -disable-output -cost-kind=latency -mcpu=btver2 | FileCheck %s --check-prefixes=CHECK,AVX1

;
; Verify the cost model for 1 src shuffles
;

define void @test_vXf64(<2 x double> %src128, <4 x double> %src256, <8 x double> %src512, <16 x double> %src1024) {
; SSE-LABEL: 'test_vXf64'
; SSE-NEXT:  Cost Model: Found an estimated cost of 1 for instruction: %V128 = shufflevector <2 x double> %src128, <2 x double> undef, <2 x i32> <i32 1, i32 1>
; SSE-NEXT:  Cost Model: Found an estimated cost of 2 for instruction: %V256 = shufflevector <4 x double> %src256, <4 x double> undef, <4 x i32> <i32 3, i32 3, i32 1, i32 0>
; SSE-NEXT:  Cost Model: Found an estimated cost of 4 for instruction: %V512 = shufflevector <8 x double> %src512, <8 x double> undef, <8 x i32> <i32 7, i32 6, i32 6, i32 4, i32 3, i32 2, i32 1, i32 0>
; SSE-NEXT:  Cost Model: Found an estimated cost of 8 for instruction: %V1024 = shufflevector <16 x double> %src1024, <16 x double> undef, <16 x i32> <i32 15, i32 14, i32 13, i32 13, i32 11, i32 10, i32 8, i32 8, i32 7, i32 6, i32 5, i32 4, i32 3, i32 2, i32 1, i32 0>
; SSE-NEXT:  Cost Model: Found an estimated cost of 1 for instruction: ret void
;
; XOP-LABEL: 'test_vXf64'
; XOP-NEXT:  Cost Model: Found an estimated cost of 1 for instruction: %V128 = shufflevector <2 x double> %src128, <2 x double> undef, <2 x i32> <i32 1, i32 1>
; XOP-NEXT:  Cost Model: Found an estimated cost of 2 for instruction: %V256 = shufflevector <4 x double> %src256, <4 x double> undef, <4 x i32> <i32 3, i32 3, i32 1, i32 0>
; XOP-NEXT:  Cost Model: Found an estimated cost of 4 for instruction: %V512 = shufflevector <8 x double> %src512, <8 x double> undef, <8 x i32> <i32 7, i32 6, i32 6, i32 4, i32 3, i32 2, i32 1, i32 0>
; XOP-NEXT:  Cost Model: Found an estimated cost of 8 for instruction: %V1024 = shufflevector <16 x double> %src1024, <16 x double> undef, <16 x i32> <i32 15, i32 14, i32 13, i32 13, i32 11, i32 10, i32 8, i32 8, i32 7, i32 6, i32 5, i32 4, i32 3, i32 2, i32 1, i32 0>
; XOP-NEXT:  Cost Model: Found an estimated cost of 1 for instruction: ret void
;
; AVX1-LABEL: 'test_vXf64'
; AVX1-NEXT:  Cost Model: Found an estimated cost of 1 for instruction: %V128 = shufflevector <2 x double> %src128, <2 x double> undef, <2 x i32> <i32 1, i32 1>
; AVX1-NEXT:  Cost Model: Found an estimated cost of 2 for instruction: %V256 = shufflevector <4 x double> %src256, <4 x double> undef, <4 x i32> <i32 3, i32 3, i32 1, i32 0>
; AVX1-NEXT:  Cost Model: Found an estimated cost of 4 for instruction: %V512 = shufflevector <8 x double> %src512, <8 x double> undef, <8 x i32> <i32 7, i32 6, i32 6, i32 4, i32 3, i32 2, i32 1, i32 0>
; AVX1-NEXT:  Cost Model: Found an estimated cost of 8 for instruction: %V1024 = shufflevector <16 x double> %src1024, <16 x double> undef, <16 x i32> <i32 15, i32 14, i32 13, i32 13, i32 11, i32 10, i32 8, i32 8, i32 7, i32 6, i32 5, i32 4, i32 3, i32 2, i32 1, i32 0>
; AVX1-NEXT:  Cost Model: Found an estimated cost of 1 for instruction: ret void
;
; AVX2-LABEL: 'test_vXf64'
; AVX2-NEXT:  Cost Model: Found an estimated cost of 1 for instruction: %V128 = shufflevector <2 x double> %src128, <2 x double> undef, <2 x i32> <i32 1, i32 1>
; AVX2-NEXT:  Cost Model: Found an estimated cost of 1 for instruction: %V256 = shufflevector <4 x double> %src256, <4 x double> undef, <4 x i32> <i32 3, i32 3, i32 1, i32 0>
; AVX2-NEXT:  Cost Model: Found an estimated cost of 2 for instruction: %V512 = shufflevector <8 x double> %src512, <8 x double> undef, <8 x i32> <i32 7, i32 6, i32 6, i32 4, i32 3, i32 2, i32 1, i32 0>
; AVX2-NEXT:  Cost Model: Found an estimated cost of 4 for instruction: %V1024 = shufflevector <16 x double> %src1024, <16 x double> undef, <16 x i32> <i32 15, i32 14, i32 13, i32 13, i32 11, i32 10, i32 8, i32 8, i32 7, i32 6, i32 5, i32 4, i32 3, i32 2, i32 1, i32 0>
; AVX2-NEXT:  Cost Model: Found an estimated cost of 1 for instruction: ret void
;
; AVX512-LABEL: 'test_vXf64'
; AVX512-NEXT:  Cost Model: Found an estimated cost of 1 for instruction: %V128 = shufflevector <2 x double> %src128, <2 x double> undef, <2 x i32> <i32 1, i32 1>
; AVX512-NEXT:  Cost Model: Found an estimated cost of 1 for instruction: %V256 = shufflevector <4 x double> %src256, <4 x double> undef, <4 x i32> <i32 3, i32 3, i32 1, i32 0>
; AVX512-NEXT:  Cost Model: Found an estimated cost of 1 for instruction: %V512 = shufflevector <8 x double> %src512, <8 x double> undef, <8 x i32> <i32 7, i32 6, i32 6, i32 4, i32 3, i32 2, i32 1, i32 0>
; AVX512-NEXT:  Cost Model: Found an estimated cost of 2 for instruction: %V1024 = shufflevector <16 x double> %src1024, <16 x double> undef, <16 x i32> <i32 15, i32 14, i32 13, i32 13, i32 11, i32 10, i32 8, i32 8, i32 7, i32 6, i32 5, i32 4, i32 3, i32 2, i32 1, i32 0>
; AVX512-NEXT:  Cost Model: Found an estimated cost of 1 for instruction: ret void
;
  %V128 = shufflevector <2 x double> %src128, <2 x double> undef, <2 x i32> <i32 1, i32 1>
  %V256 = shufflevector <4 x double> %src256, <4 x double> undef, <4 x i32> <i32 3, i32 3, i32 1, i32 0>
  %V512 = shufflevector <8 x double> %src512, <8 x double> undef, <8 x i32> <i32 7, i32 6, i32 6, i32 4, i32 3, i32 2, i32 1, i32 0>
  %V1024 = shufflevector <16 x double> %src1024, <16 x double> undef, <16 x i32> <i32 15, i32 14, i32 13, i32 13, i32 11, i32 10, i32 8, i32 8, i32 7, i32 6, i32 5, i32 4, i32 3, i32 2, i32 1, i32 0>
  ret void
}

define void @test_vXi64(<2 x i64> %src128, <4 x i64> %src256, <8 x i64> %src512) {
; SSE-LABEL: 'test_vXi64'
; SSE-NEXT:  Cost Model: Found an estimated cost of 1 for instruction: %V128 = shufflevector <2 x i64> %src128, <2 x i64> undef, <2 x i32> <i32 1, i32 1>
; SSE-NEXT:  Cost Model: Found an estimated cost of 2 for instruction: %V256 = shufflevector <4 x i64> %src256, <4 x i64> undef, <4 x i32> <i32 3, i32 3, i32 1, i32 0>
; SSE-NEXT:  Cost Model: Found an estimated cost of 4 for instruction: %V512 = shufflevector <8 x i64> %src512, <8 x i64> undef, <8 x i32> <i32 7, i32 6, i32 6, i32 4, i32 3, i32 2, i32 1, i32 0>
; SSE-NEXT:  Cost Model: Found an estimated cost of 1 for instruction: ret void
;
; XOP-LABEL: 'test_vXi64'
; XOP-NEXT:  Cost Model: Found an estimated cost of 1 for instruction: %V128 = shufflevector <2 x i64> %src128, <2 x i64> undef, <2 x i32> <i32 1, i32 1>
; XOP-NEXT:  Cost Model: Found an estimated cost of 2 for instruction: %V256 = shufflevector <4 x i64> %src256, <4 x i64> undef, <4 x i32> <i32 3, i32 3, i32 1, i32 0>
; XOP-NEXT:  Cost Model: Found an estimated cost of 4 for instruction: %V512 = shufflevector <8 x i64> %src512, <8 x i64> undef, <8 x i32> <i32 7, i32 6, i32 6, i32 4, i32 3, i32 2, i32 1, i32 0>
; XOP-NEXT:  Cost Model: Found an estimated cost of 1 for instruction: ret void
;
; AVX1-LABEL: 'test_vXi64'
; AVX1-NEXT:  Cost Model: Found an estimated cost of 1 for instruction: %V128 = shufflevector <2 x i64> %src128, <2 x i64> undef, <2 x i32> <i32 1, i32 1>
; AVX1-NEXT:  Cost Model: Found an estimated cost of 2 for instruction: %V256 = shufflevector <4 x i64> %src256, <4 x i64> undef, <4 x i32> <i32 3, i32 3, i32 1, i32 0>
; AVX1-NEXT:  Cost Model: Found an estimated cost of 4 for instruction: %V512 = shufflevector <8 x i64> %src512, <8 x i64> undef, <8 x i32> <i32 7, i32 6, i32 6, i32 4, i32 3, i32 2, i32 1, i32 0>
; AVX1-NEXT:  Cost Model: Found an estimated cost of 1 for instruction: ret void
;
; AVX2-LABEL: 'test_vXi64'
; AVX2-NEXT:  Cost Model: Found an estimated cost of 1 for instruction: %V128 = shufflevector <2 x i64> %src128, <2 x i64> undef, <2 x i32> <i32 1, i32 1>
; AVX2-NEXT:  Cost Model: Found an estimated cost of 1 for instruction: %V256 = shufflevector <4 x i64> %src256, <4 x i64> undef, <4 x i32> <i32 3, i32 3, i32 1, i32 0>
; AVX2-NEXT:  Cost Model: Found an estimated cost of 2 for instruction: %V512 = shufflevector <8 x i64> %src512, <8 x i64> undef, <8 x i32> <i32 7, i32 6, i32 6, i32 4, i32 3, i32 2, i32 1, i32 0>
; AVX2-NEXT:  Cost Model: Found an estimated cost of 1 for instruction: ret void
;
; AVX512-LABEL: 'test_vXi64'
; AVX512-NEXT:  Cost Model: Found an estimated cost of 1 for instruction: %V128 = shufflevector <2 x i64> %src128, <2 x i64> undef, <2 x i32> <i32 1, i32 1>
; AVX512-NEXT:  Cost Model: Found an estimated cost of 1 for instruction: %V256 = shufflevector <4 x i64> %src256, <4 x i64> undef, <4 x i32> <i32 3, i32 3, i32 1, i32 0>
; AVX512-NEXT:  Cost Model: Found an estimated cost of 1 for instruction: %V512 = shufflevector <8 x i64> %src512, <8 x i64> undef, <8 x i32> <i32 7, i32 6, i32 6, i32 4, i32 3, i32 2, i32 1, i32 0>
; AVX512-NEXT:  Cost Model: Found an estimated cost of 1 for instruction: ret void
;
  %V128 = shufflevector <2 x i64> %src128, <2 x i64> undef, <2 x i32> <i32 1, i32 1>
  %V256 = shufflevector <4 x i64> %src256, <4 x i64> undef, <4 x i32> <i32 3, i32 3, i32 1, i32 0>
  %V512 = shufflevector <8 x i64> %src512, <8 x i64> undef, <8 x i32> <i32 7, i32 6, i32 6, i32 4, i32 3, i32 2, i32 1, i32 0>
  ret void
}

define void @test_vXf32(<2 x float> %src64, <4 x float> %src128, <8 x float> %src256, <16 x float> %src512) {
; SSE-LABEL: 'test_vXf32'
; SSE-NEXT:  Cost Model: Found an estimated cost of 1 for instruction: %V64 = shufflevector <2 x float> %src64, <2 x float> undef, <2 x i32> <i32 1, i32 1>
; SSE-NEXT:  Cost Model: Found an estimated cost of 1 for instruction: %V128 = shufflevector <4 x float> %src128, <4 x float> undef, <4 x i32> <i32 3, i32 3, i32 1, i32 0>
; SSE-NEXT:  Cost Model: Found an estimated cost of 2 for instruction: %V256 = shufflevector <8 x float> %src256, <8 x float> undef, <8 x i32> <i32 7, i32 6, i32 6, i32 4, i32 3, i32 2, i32 1, i32 0>
; SSE-NEXT:  Cost Model: Found an estimated cost of 4 for instruction: %V512 = shufflevector <16 x float> %src512, <16 x float> undef, <16 x i32> <i32 15, i32 14, i32 13, i32 13, i32 11, i32 10, i32 8, i32 8, i32 7, i32 6, i32 5, i32 4, i32 3, i32 2, i32 1, i32 0>
; SSE-NEXT:  Cost Model: Found an estimated cost of 1 for instruction: ret void
;
; XOP-LABEL: 'test_vXf32'
; XOP-NEXT:  Cost Model: Found an estimated cost of 1 for instruction: %V64 = shufflevector <2 x float> %src64, <2 x float> undef, <2 x i32> <i32 1, i32 1>
; XOP-NEXT:  Cost Model: Found an estimated cost of 1 for instruction: %V128 = shufflevector <4 x float> %src128, <4 x float> undef, <4 x i32> <i32 3, i32 3, i32 1, i32 0>
; XOP-NEXT:  Cost Model: Found an estimated cost of 2 for instruction: %V256 = shufflevector <8 x float> %src256, <8 x float> undef, <8 x i32> <i32 7, i32 6, i32 6, i32 4, i32 3, i32 2, i32 1, i32 0>
; XOP-NEXT:  Cost Model: Found an estimated cost of 4 for instruction: %V512 = shufflevector <16 x float> %src512, <16 x float> undef, <16 x i32> <i32 15, i32 14, i32 13, i32 13, i32 11, i32 10, i32 8, i32 8, i32 7, i32 6, i32 5, i32 4, i32 3, i32 2, i32 1, i32 0>
; XOP-NEXT:  Cost Model: Found an estimated cost of 1 for instruction: ret void
;
; AVX1-LABEL: 'test_vXf32'
; AVX1-NEXT:  Cost Model: Found an estimated cost of 1 for instruction: %V64 = shufflevector <2 x float> %src64, <2 x float> undef, <2 x i32> <i32 1, i32 1>
; AVX1-NEXT:  Cost Model: Found an estimated cost of 1 for instruction: %V128 = shufflevector <4 x float> %src128, <4 x float> undef, <4 x i32> <i32 3, i32 3, i32 1, i32 0>
; AVX1-NEXT:  Cost Model: Found an estimated cost of 4 for instruction: %V256 = shufflevector <8 x float> %src256, <8 x float> undef, <8 x i32> <i32 7, i32 6, i32 6, i32 4, i32 3, i32 2, i32 1, i32 0>
; AVX1-NEXT:  Cost Model: Found an estimated cost of 6 for instruction: %V512 = shufflevector <16 x float> %src512, <16 x float> undef, <16 x i32> <i32 15, i32 14, i32 13, i32 13, i32 11, i32 10, i32 8, i32 8, i32 7, i32 6, i32 5, i32 4, i32 3, i32 2, i32 1, i32 0>
; AVX1-NEXT:  Cost Model: Found an estimated cost of 1 for instruction: ret void
;
; AVX2-LABEL: 'test_vXf32'
; AVX2-NEXT:  Cost Model: Found an estimated cost of 1 for instruction: %V64 = shufflevector <2 x float> %src64, <2 x float> undef, <2 x i32> <i32 1, i32 1>
; AVX2-NEXT:  Cost Model: Found an estimated cost of 1 for instruction: %V128 = shufflevector <4 x float> %src128, <4 x float> undef, <4 x i32> <i32 3, i32 3, i32 1, i32 0>
; AVX2-NEXT:  Cost Model: Found an estimated cost of 1 for instruction: %V256 = shufflevector <8 x float> %src256, <8 x float> undef, <8 x i32> <i32 7, i32 6, i32 6, i32 4, i32 3, i32 2, i32 1, i32 0>
; AVX2-NEXT:  Cost Model: Found an estimated cost of 2 for instruction: %V512 = shufflevector <16 x float> %src512, <16 x float> undef, <16 x i32> <i32 15, i32 14, i32 13, i32 13, i32 11, i32 10, i32 8, i32 8, i32 7, i32 6, i32 5, i32 4, i32 3, i32 2, i32 1, i32 0>
; AVX2-NEXT:  Cost Model: Found an estimated cost of 1 for instruction: ret void
;
; AVX512-LABEL: 'test_vXf32'
; AVX512-NEXT:  Cost Model: Found an estimated cost of 1 for instruction: %V64 = shufflevector <2 x float> %src64, <2 x float> undef, <2 x i32> <i32 1, i32 1>
; AVX512-NEXT:  Cost Model: Found an estimated cost of 1 for instruction: %V128 = shufflevector <4 x float> %src128, <4 x float> undef, <4 x i32> <i32 3, i32 3, i32 1, i32 0>
; AVX512-NEXT:  Cost Model: Found an estimated cost of 1 for instruction: %V256 = shufflevector <8 x float> %src256, <8 x float> undef, <8 x i32> <i32 7, i32 6, i32 6, i32 4, i32 3, i32 2, i32 1, i32 0>
; AVX512-NEXT:  Cost Model: Found an estimated cost of 1 for instruction: %V512 = shufflevector <16 x float> %src512, <16 x float> undef, <16 x i32> <i32 15, i32 14, i32 13, i32 13, i32 11, i32 10, i32 8, i32 8, i32 7, i32 6, i32 5, i32 4, i32 3, i32 2, i32 1, i32 0>
; AVX512-NEXT:  Cost Model: Found an estimated cost of 1 for instruction: ret void
;
  %V64  = shufflevector <2 x float> %src64, <2 x float> undef, <2 x i32> <i32 1, i32 1>
  %V128 = shufflevector <4 x float> %src128, <4 x float> undef, <4 x i32> <i32 3, i32 3, i32 1, i32 0>
  %V256 = shufflevector <8 x float> %src256, <8 x float> undef, <8 x i32> <i32 7, i32 6, i32 6, i32 4, i32 3, i32 2, i32 1, i32 0>
  %V512 = shufflevector <16 x float> %src512, <16 x float> undef, <16 x i32> <i32 15, i32 14, i32 13, i32 13, i32 11, i32 10, i32 8, i32 8, i32 7, i32 6, i32 5, i32 4, i32 3, i32 2, i32 1, i32 0>
  ret void
}

define void @test_vXi32(<2 x i32> %src64, <4 x i32> %src128, <8 x i32> %src256, <16 x i32> %src512, <32 x i32> %src1024) {
; SSE-LABEL: 'test_vXi32'
; SSE-NEXT:  Cost Model: Found an estimated cost of 1 for instruction: %V64 = shufflevector <2 x i32> %src64, <2 x i32> undef, <2 x i32> <i32 1, i32 1>
; SSE-NEXT:  Cost Model: Found an estimated cost of 1 for instruction: %V128 = shufflevector <4 x i32> %src128, <4 x i32> undef, <4 x i32> <i32 3, i32 3, i32 1, i32 0>
; SSE-NEXT:  Cost Model: Found an estimated cost of 2 for instruction: %V256 = shufflevector <8 x i32> %src256, <8 x i32> undef, <8 x i32> <i32 7, i32 6, i32 5, i32 5, i32 3, i32 2, i32 1, i32 0>
; SSE-NEXT:  Cost Model: Found an estimated cost of 6 for instruction: %V512 = shufflevector <16 x i32> %src512, <16 x i32> undef, <16 x i32> <i32 15, i32 14, i32 13, i32 12, i32 13, i32 10, i32 9, i32 8, i32 8, i32 6, i32 5, i32 4, i32 3, i32 2, i32 1, i32 0>
; SSE-NEXT:  Cost Model: Found an estimated cost of 10 for instruction: %V1024 = shufflevector <32 x i32> %src1024, <32 x i32> undef, <32 x i32> <i32 31, i32 30, i32 20, i32 28, i32 27, i32 26, i32 25, i32 24, i32 23, i32 22, i32 21, i32 20, i32 19, i32 18, i32 17, i32 16, i32 15, i32 14, i32 13, i32 12, i32 11, i32 11, i32 9, i32 8, i32 7, i32 11, i32 5, i32 4, i32 3, i32 2, i32 1, i32 0>
; SSE-NEXT:  Cost Model: Found an estimated cost of 1 for instruction: ret void
;
; XOP-LABEL: 'test_vXi32'
; XOP-NEXT:  Cost Model: Found an estimated cost of 1 for instruction: %V64 = shufflevector <2 x i32> %src64, <2 x i32> undef, <2 x i32> <i32 1, i32 1>
; XOP-NEXT:  Cost Model: Found an estimated cost of 1 for instruction: %V128 = shufflevector <4 x i32> %src128, <4 x i32> undef, <4 x i32> <i32 3, i32 3, i32 1, i32 0>
; XOP-NEXT:  Cost Model: Found an estimated cost of 2 for instruction: %V256 = shufflevector <8 x i32> %src256, <8 x i32> undef, <8 x i32> <i32 7, i32 6, i32 5, i32 5, i32 3, i32 2, i32 1, i32 0>
; XOP-NEXT:  Cost Model: Found an estimated cost of 6 for instruction: %V512 = shufflevector <16 x i32> %src512, <16 x i32> undef, <16 x i32> <i32 15, i32 14, i32 13, i32 12, i32 13, i32 10, i32 9, i32 8, i32 8, i32 6, i32 5, i32 4, i32 3, i32 2, i32 1, i32 0>
; XOP-NEXT:  Cost Model: Found an estimated cost of 12 for instruction: %V1024 = shufflevector <32 x i32> %src1024, <32 x i32> undef, <32 x i32> <i32 31, i32 30, i32 20, i32 28, i32 27, i32 26, i32 25, i32 24, i32 23, i32 22, i32 21, i32 20, i32 19, i32 18, i32 17, i32 16, i32 15, i32 14, i32 13, i32 12, i32 11, i32 11, i32 9, i32 8, i32 7, i32 11, i32 5, i32 4, i32 3, i32 2, i32 1, i32 0>
; XOP-NEXT:  Cost Model: Found an estimated cost of 1 for instruction: ret void
;
; AVX1-LABEL: 'test_vXi32'
; AVX1-NEXT:  Cost Model: Found an estimated cost of 1 for instruction: %V64 = shufflevector <2 x i32> %src64, <2 x i32> undef, <2 x i32> <i32 1, i32 1>
; AVX1-NEXT:  Cost Model: Found an estimated cost of 1 for instruction: %V128 = shufflevector <4 x i32> %src128, <4 x i32> undef, <4 x i32> <i32 3, i32 3, i32 1, i32 0>
; AVX1-NEXT:  Cost Model: Found an estimated cost of 4 for instruction: %V256 = shufflevector <8 x i32> %src256, <8 x i32> undef, <8 x i32> <i32 7, i32 6, i32 5, i32 5, i32 3, i32 2, i32 1, i32 0>
; AVX1-NEXT:  Cost Model: Found an estimated cost of 8 for instruction: %V512 = shufflevector <16 x i32> %src512, <16 x i32> undef, <16 x i32> <i32 15, i32 14, i32 13, i32 12, i32 13, i32 10, i32 9, i32 8, i32 8, i32 6, i32 5, i32 4, i32 3, i32 2, i32 1, i32 0>
; AVX1-NEXT:  Cost Model: Found an estimated cost of 14 for instruction: %V1024 = shufflevector <32 x i32> %src1024, <32 x i32> undef, <32 x i32> <i32 31, i32 30, i32 20, i32 28, i32 27, i32 26, i32 25, i32 24, i32 23, i32 22, i32 21, i32 20, i32 19, i32 18, i32 17, i32 16, i32 15, i32 14, i32 13, i32 12, i32 11, i32 11, i32 9, i32 8, i32 7, i32 11, i32 5, i32 4, i32 3, i32 2, i32 1, i32 0>
; AVX1-NEXT:  Cost Model: Found an estimated cost of 1 for instruction: ret void
;
; AVX2-LABEL: 'test_vXi32'
; AVX2-NEXT:  Cost Model: Found an estimated cost of 1 for instruction: %V64 = shufflevector <2 x i32> %src64, <2 x i32> undef, <2 x i32> <i32 1, i32 1>
; AVX2-NEXT:  Cost Model: Found an estimated cost of 1 for instruction: %V128 = shufflevector <4 x i32> %src128, <4 x i32> undef, <4 x i32> <i32 3, i32 3, i32 1, i32 0>
; AVX2-NEXT:  Cost Model: Found an estimated cost of 1 for instruction: %V256 = shufflevector <8 x i32> %src256, <8 x i32> undef, <8 x i32> <i32 7, i32 6, i32 5, i32 5, i32 3, i32 2, i32 1, i32 0>
; AVX2-NEXT:  Cost Model: Found an estimated cost of 4 for instruction: %V512 = shufflevector <16 x i32> %src512, <16 x i32> undef, <16 x i32> <i32 15, i32 14, i32 13, i32 12, i32 13, i32 10, i32 9, i32 8, i32 8, i32 6, i32 5, i32 4, i32 3, i32 2, i32 1, i32 0>
; AVX2-NEXT:  Cost Model: Found an estimated cost of 8 for instruction: %V1024 = shufflevector <32 x i32> %src1024, <32 x i32> undef, <32 x i32> <i32 31, i32 30, i32 20, i32 28, i32 27, i32 26, i32 25, i32 24, i32 23, i32 22, i32 21, i32 20, i32 19, i32 18, i32 17, i32 16, i32 15, i32 14, i32 13, i32 12, i32 11, i32 11, i32 9, i32 8, i32 7, i32 11, i32 5, i32 4, i32 3, i32 2, i32 1, i32 0>
; AVX2-NEXT:  Cost Model: Found an estimated cost of 1 for instruction: ret void
;
; AVX512-LABEL: 'test_vXi32'
; AVX512-NEXT:  Cost Model: Found an estimated cost of 1 for instruction: %V64 = shufflevector <2 x i32> %src64, <2 x i32> undef, <2 x i32> <i32 1, i32 1>
; AVX512-NEXT:  Cost Model: Found an estimated cost of 1 for instruction: %V128 = shufflevector <4 x i32> %src128, <4 x i32> undef, <4 x i32> <i32 3, i32 3, i32 1, i32 0>
; AVX512-NEXT:  Cost Model: Found an estimated cost of 1 for instruction: %V256 = shufflevector <8 x i32> %src256, <8 x i32> undef, <8 x i32> <i32 7, i32 6, i32 5, i32 5, i32 3, i32 2, i32 1, i32 0>
; AVX512-NEXT:  Cost Model: Found an estimated cost of 1 for instruction: %V512 = shufflevector <16 x i32> %src512, <16 x i32> undef, <16 x i32> <i32 15, i32 14, i32 13, i32 12, i32 13, i32 10, i32 9, i32 8, i32 8, i32 6, i32 5, i32 4, i32 3, i32 2, i32 1, i32 0>
; AVX512-NEXT:  Cost Model: Found an estimated cost of 2 for instruction: %V1024 = shufflevector <32 x i32> %src1024, <32 x i32> undef, <32 x i32> <i32 31, i32 30, i32 20, i32 28, i32 27, i32 26, i32 25, i32 24, i32 23, i32 22, i32 21, i32 20, i32 19, i32 18, i32 17, i32 16, i32 15, i32 14, i32 13, i32 12, i32 11, i32 11, i32 9, i32 8, i32 7, i32 11, i32 5, i32 4, i32 3, i32 2, i32 1, i32 0>
; AVX512-NEXT:  Cost Model: Found an estimated cost of 1 for instruction: ret void
;
  %V64  = shufflevector <2 x i32> %src64, <2 x i32> undef, <2 x i32> <i32 1, i32 1>
  %V128 = shufflevector <4 x i32> %src128, <4 x i32> undef, <4 x i32> <i32 3, i32 3, i32 1, i32 0>
  %V256 = shufflevector <8 x i32> %src256, <8 x i32> undef, <8 x i32> <i32 7, i32 6, i32 5, i32 5, i32 3, i32 2, i32 1, i32 0>
  %V512 = shufflevector <16 x i32> %src512, <16 x i32> undef, <16 x i32> <i32 15, i32 14, i32 13, i32 12, i32 13, i32 10, i32 9, i32 8, i32 8, i32 6, i32 5, i32 4, i32 3, i32 2, i32 1, i32 0>
  %V1024 = shufflevector <32 x i32> %src1024, <32 x i32> undef, <32 x i32> <i32 31, i32 30, i32 20, i32 28, i32 27, i32 26, i32 25, i32 24, i32 23, i32 22, i32 21, i32 20, i32 19, i32 18, i32 17, i32 16, i32 15, i32 14, i32 13, i32 12, i32 11, i32 11, i32 9, i32 8, i32 7, i32 11, i32 5, i32 4, i32 3, i32 2, i32 1, i32 0>
  ret void
}

define void @test_vXi16(<2 x i16> %src32, <4 x i16> %src64, <8 x i16> %src128, <16 x i16> %src256, <32 x i16> %src512, <64 x i16> %src1024) {
; SSE2-LABEL: 'test_vXi16'
; SSE2-NEXT:  Cost Model: Found an estimated cost of 1 for instruction: %V32 = shufflevector <2 x i16> %src32, <2 x i16> undef, <2 x i32> <i32 1, i32 1>
; SSE2-NEXT:  Cost Model: Found an estimated cost of 1 for instruction: %V64 = shufflevector <4 x i16> %src64, <4 x i16> undef, <4 x i32> <i32 2, i32 2, i32 1, i32 1>
; SSE2-NEXT:  Cost Model: Found an estimated cost of 5 for instruction: %V128 = shufflevector <8 x i16> %src128, <8 x i16> undef, <8 x i32> <i32 7, i32 6, i32 6, i32 4, i32 3, i32 2, i32 1, i32 0>
; SSE2-NEXT:  Cost Model: Found an estimated cost of 8 for instruction: %V256 = shufflevector <16 x i16> %src256, <16 x i16> undef, <16 x i32> <i32 15, i32 14, i32 13, i32 13, i32 11, i32 10, i32 9, i32 8, i32 7, i32 6, i32 5, i32 4, i32 3, i32 2, i32 1, i32 0>
; SSE2-NEXT:  Cost Model: Found an estimated cost of 24 for instruction: %V512 = shufflevector <32 x i16> %src512, <32 x i16> undef, <32 x i32> <i32 31, i32 30, i32 20, i32 28, i32 27, i32 26, i32 25, i32 24, i32 23, i32 22, i32 21, i32 20, i32 19, i32 18, i32 17, i32 16, i32 15, i32 14, i32 13, i32 12, i32 11, i32 11, i32 9, i32 8, i32 7, i32 11, i32 5, i32 4, i32 3, i32 2, i32 1, i32 0>
; SSE2-NEXT:  Cost Model: Found an estimated cost of 26 for instruction: %V1024 = shufflevector <64 x i16> %src1024, <64 x i16> undef, <64 x i32> <i32 63, i32 62, i32 61, i32 60, i32 59, i32 58, i32 57, i32 56, i32 55, i32 54, i32 53, i32 52, i32 51, i32 50, i32 49, i32 48, i32 47, i32 46, i32 45, i32 44, i32 43, i32 42, i32 41, i32 40, i32 39, i32 38, i32 37, i32 36, i32 35, i32 34, i32 33, i32 32, i32 31, i32 30, i32 29, i32 28, i32 27, i32 26, i32 25, i32 24, i32 23, i32 20, i32 21, i32 20, i32 19, i32 18, i32 17, i32 16, i32 15, i32 14, i32 13, i32 12, i32 11, i32 10, i32 9, i32 8, i32 7, i32 6, i32 5, i32 4, i32 3, i32 2, i32 1, i32 0>
; SSE2-NEXT:  Cost Model: Found an estimated cost of 1 for instruction: ret void
;
; SSSE3-LABEL: 'test_vXi16'
; SSSE3-NEXT:  Cost Model: Found an estimated cost of 1 for instruction: %V32 = shufflevector <2 x i16> %src32, <2 x i16> undef, <2 x i32> <i32 1, i32 1>
; SSSE3-NEXT:  Cost Model: Found an estimated cost of 1 for instruction: %V64 = shufflevector <4 x i16> %src64, <4 x i16> undef, <4 x i32> <i32 2, i32 2, i32 1, i32 1>
; SSSE3-NEXT:  Cost Model: Found an estimated cost of 1 for instruction: %V128 = shufflevector <8 x i16> %src128, <8 x i16> undef, <8 x i32> <i32 7, i32 6, i32 6, i32 4, i32 3, i32 2, i32 1, i32 0>
; SSSE3-NEXT:  Cost Model: Found an estimated cost of 2 for instruction: %V256 = shufflevector <16 x i16> %src256, <16 x i16> undef, <16 x i32> <i32 15, i32 14, i32 13, i32 13, i32 11, i32 10, i32 9, i32 8, i32 7, i32 6, i32 5, i32 4, i32 3, i32 2, i32 1, i32 0>
; SSSE3-NEXT:  Cost Model: Found an estimated cost of 8 for instruction: %V512 = shufflevector <32 x i16> %src512, <32 x i16> undef, <32 x i32> <i32 31, i32 30, i32 20, i32 28, i32 27, i32 26, i32 25, i32 24, i32 23, i32 22, i32 21, i32 20, i32 19, i32 18, i32 17, i32 16, i32 15, i32 14, i32 13, i32 12, i32 11, i32 11, i32 9, i32 8, i32 7, i32 11, i32 5, i32 4, i32 3, i32 2, i32 1, i32 0>
; SSSE3-NEXT:  Cost Model: Found an estimated cost of 8 for instruction: %V1024 = shufflevector <64 x i16> %src1024, <64 x i16> undef, <64 x i32> <i32 63, i32 62, i32 61, i32 60, i32 59, i32 58, i32 57, i32 56, i32 55, i32 54, i32 53, i32 52, i32 51, i32 50, i32 49, i32 48, i32 47, i32 46, i32 45, i32 44, i32 43, i32 42, i32 41, i32 40, i32 39, i32 38, i32 37, i32 36, i32 35, i32 34, i32 33, i32 32, i32 31, i32 30, i32 29, i32 28, i32 27, i32 26, i32 25, i32 24, i32 23, i32 20, i32 21, i32 20, i32 19, i32 18, i32 17, i32 16, i32 15, i32 14, i32 13, i32 12, i32 11, i32 10, i32 9, i32 8, i32 7, i32 6, i32 5, i32 4, i32 3, i32 2, i32 1, i32 0>
; SSSE3-NEXT:  Cost Model: Found an estimated cost of 1 for instruction: ret void
;
; SSE42-LABEL: 'test_vXi16'
; SSE42-NEXT:  Cost Model: Found an estimated cost of 1 for instruction: %V32 = shufflevector <2 x i16> %src32, <2 x i16> undef, <2 x i32> <i32 1, i32 1>
; SSE42-NEXT:  Cost Model: Found an estimated cost of 1 for instruction: %V64 = shufflevector <4 x i16> %src64, <4 x i16> undef, <4 x i32> <i32 2, i32 2, i32 1, i32 1>
; SSE42-NEXT:  Cost Model: Found an estimated cost of 1 for instruction: %V128 = shufflevector <8 x i16> %src128, <8 x i16> undef, <8 x i32> <i32 7, i32 6, i32 6, i32 4, i32 3, i32 2, i32 1, i32 0>
; SSE42-NEXT:  Cost Model: Found an estimated cost of 2 for instruction: %V256 = shufflevector <16 x i16> %src256, <16 x i16> undef, <16 x i32> <i32 15, i32 14, i32 13, i32 13, i32 11, i32 10, i32 9, i32 8, i32 7, i32 6, i32 5, i32 4, i32 3, i32 2, i32 1, i32 0>
; SSE42-NEXT:  Cost Model: Found an estimated cost of 8 for instruction: %V512 = shufflevector <32 x i16> %src512, <32 x i16> undef, <32 x i32> <i32 31, i32 30, i32 20, i32 28, i32 27, i32 26, i32 25, i32 24, i32 23, i32 22, i32 21, i32 20, i32 19, i32 18, i32 17, i32 16, i32 15, i32 14, i32 13, i32 12, i32 11, i32 11, i32 9, i32 8, i32 7, i32 11, i32 5, i32 4, i32 3, i32 2, i32 1, i32 0>
; SSE42-NEXT:  Cost Model: Found an estimated cost of 8 for instruction: %V1024 = shufflevector <64 x i16> %src1024, <64 x i16> undef, <64 x i32> <i32 63, i32 62, i32 61, i32 60, i32 59, i32 58, i32 57, i32 56, i32 55, i32 54, i32 53, i32 52, i32 51, i32 50, i32 49, i32 48, i32 47, i32 46, i32 45, i32 44, i32 43, i32 42, i32 41, i32 40, i32 39, i32 38, i32 37, i32 36, i32 35, i32 34, i32 33, i32 32, i32 31, i32 30, i32 29, i32 28, i32 27, i32 26, i32 25, i32 24, i32 23, i32 20, i32 21, i32 20, i32 19, i32 18, i32 17, i32 16, i32 15, i32 14, i32 13, i32 12, i32 11, i32 10, i32 9, i32 8, i32 7, i32 6, i32 5, i32 4, i32 3, i32 2, i32 1, i32 0>
; SSE42-NEXT:  Cost Model: Found an estimated cost of 1 for instruction: ret void
;
; XOP-LABEL: 'test_vXi16'
; XOP-NEXT:  Cost Model: Found an estimated cost of 1 for instruction: %V32 = shufflevector <2 x i16> %src32, <2 x i16> undef, <2 x i32> <i32 1, i32 1>
; XOP-NEXT:  Cost Model: Found an estimated cost of 1 for instruction: %V64 = shufflevector <4 x i16> %src64, <4 x i16> undef, <4 x i32> <i32 2, i32 2, i32 1, i32 1>
; XOP-NEXT:  Cost Model: Found an estimated cost of 1 for instruction: %V128 = shufflevector <8 x i16> %src128, <8 x i16> undef, <8 x i32> <i32 7, i32 6, i32 6, i32 4, i32 3, i32 2, i32 1, i32 0>
; XOP-NEXT:  Cost Model: Found an estimated cost of 4 for instruction: %V256 = shufflevector <16 x i16> %src256, <16 x i16> undef, <16 x i32> <i32 15, i32 14, i32 13, i32 13, i32 11, i32 10, i32 9, i32 8, i32 7, i32 6, i32 5, i32 4, i32 3, i32 2, i32 1, i32 0>
; XOP-NEXT:  Cost Model: Found an estimated cost of 8 for instruction: %V512 = shufflevector <32 x i16> %src512, <32 x i16> undef, <32 x i32> <i32 31, i32 30, i32 20, i32 28, i32 27, i32 26, i32 25, i32 24, i32 23, i32 22, i32 21, i32 20, i32 19, i32 18, i32 17, i32 16, i32 15, i32 14, i32 13, i32 12, i32 11, i32 11, i32 9, i32 8, i32 7, i32 11, i32 5, i32 4, i32 3, i32 2, i32 1, i32 0>
; XOP-NEXT:  Cost Model: Found an estimated cost of 16 for instruction: %V1024 = shufflevector <64 x i16> %src1024, <64 x i16> undef, <64 x i32> <i32 63, i32 62, i32 61, i32 60, i32 59, i32 58, i32 57, i32 56, i32 55, i32 54, i32 53, i32 52, i32 51, i32 50, i32 49, i32 48, i32 47, i32 46, i32 45, i32 44, i32 43, i32 42, i32 41, i32 40, i32 39, i32 38, i32 37, i32 36, i32 35, i32 34, i32 33, i32 32, i32 31, i32 30, i32 29, i32 28, i32 27, i32 26, i32 25, i32 24, i32 23, i32 20, i32 21, i32 20, i32 19, i32 18, i32 17, i32 16, i32 15, i32 14, i32 13, i32 12, i32 11, i32 10, i32 9, i32 8, i32 7, i32 6, i32 5, i32 4, i32 3, i32 2, i32 1, i32 0>
; XOP-NEXT:  Cost Model: Found an estimated cost of 1 for instruction: ret void
;
; AVX1-LABEL: 'test_vXi16'
; AVX1-NEXT:  Cost Model: Found an estimated cost of 1 for instruction: %V32 = shufflevector <2 x i16> %src32, <2 x i16> undef, <2 x i32> <i32 1, i32 1>
; AVX1-NEXT:  Cost Model: Found an estimated cost of 1 for instruction: %V64 = shufflevector <4 x i16> %src64, <4 x i16> undef, <4 x i32> <i32 2, i32 2, i32 1, i32 1>
; AVX1-NEXT:  Cost Model: Found an estimated cost of 1 for instruction: %V128 = shufflevector <8 x i16> %src128, <8 x i16> undef, <8 x i32> <i32 7, i32 6, i32 6, i32 4, i32 3, i32 2, i32 1, i32 0>
; AVX1-NEXT:  Cost Model: Found an estimated cost of 8 for instruction: %V256 = shufflevector <16 x i16> %src256, <16 x i16> undef, <16 x i32> <i32 15, i32 14, i32 13, i32 13, i32 11, i32 10, i32 9, i32 8, i32 7, i32 6, i32 5, i32 4, i32 3, i32 2, i32 1, i32 0>
; AVX1-NEXT:  Cost Model: Found an estimated cost of 16 for instruction: %V512 = shufflevector <32 x i16> %src512, <32 x i16> undef, <32 x i32> <i32 31, i32 30, i32 20, i32 28, i32 27, i32 26, i32 25, i32 24, i32 23, i32 22, i32 21, i32 20, i32 19, i32 18, i32 17, i32 16, i32 15, i32 14, i32 13, i32 12, i32 11, i32 11, i32 9, i32 8, i32 7, i32 11, i32 5, i32 4, i32 3, i32 2, i32 1, i32 0>
; AVX1-NEXT:  Cost Model: Found an estimated cost of 20 for instruction: %V1024 = shufflevector <64 x i16> %src1024, <64 x i16> undef, <64 x i32> <i32 63, i32 62, i32 61, i32 60, i32 59, i32 58, i32 57, i32 56, i32 55, i32 54, i32 53, i32 52, i32 51, i32 50, i32 49, i32 48, i32 47, i32 46, i32 45, i32 44, i32 43, i32 42, i32 41, i32 40, i32 39, i32 38, i32 37, i32 36, i32 35, i32 34, i32 33, i32 32, i32 31, i32 30, i32 29, i32 28, i32 27, i32 26, i32 25, i32 24, i32 23, i32 20, i32 21, i32 20, i32 19, i32 18, i32 17, i32 16, i32 15, i32 14, i32 13, i32 12, i32 11, i32 10, i32 9, i32 8, i32 7, i32 6, i32 5, i32 4, i32 3, i32 2, i32 1, i32 0>
; AVX1-NEXT:  Cost Model: Found an estimated cost of 1 for instruction: ret void
;
; AVX2-LABEL: 'test_vXi16'
; AVX2-NEXT:  Cost Model: Found an estimated cost of 1 for instruction: %V32 = shufflevector <2 x i16> %src32, <2 x i16> undef, <2 x i32> <i32 1, i32 1>
; AVX2-NEXT:  Cost Model: Found an estimated cost of 1 for instruction: %V64 = shufflevector <4 x i16> %src64, <4 x i16> undef, <4 x i32> <i32 2, i32 2, i32 1, i32 1>
; AVX2-NEXT:  Cost Model: Found an estimated cost of 1 for instruction: %V128 = shufflevector <8 x i16> %src128, <8 x i16> undef, <8 x i32> <i32 7, i32 6, i32 6, i32 4, i32 3, i32 2, i32 1, i32 0>
; AVX2-NEXT:  Cost Model: Found an estimated cost of 4 for instruction: %V256 = shufflevector <16 x i16> %src256, <16 x i16> undef, <16 x i32> <i32 15, i32 14, i32 13, i32 13, i32 11, i32 10, i32 9, i32 8, i32 7, i32 6, i32 5, i32 4, i32 3, i32 2, i32 1, i32 0>
; AVX2-NEXT:  Cost Model: Found an estimated cost of 8 for instruction: %V512 = shufflevector <32 x i16> %src512, <32 x i16> undef, <32 x i32> <i32 31, i32 30, i32 20, i32 28, i32 27, i32 26, i32 25, i32 24, i32 23, i32 22, i32 21, i32 20, i32 19, i32 18, i32 17, i32 16, i32 15, i32 14, i32 13, i32 12, i32 11, i32 11, i32 9, i32 8, i32 7, i32 11, i32 5, i32 4, i32 3, i32 2, i32 1, i32 0>
; AVX2-NEXT:  Cost Model: Found an estimated cost of 10 for instruction: %V1024 = shufflevector <64 x i16> %src1024, <64 x i16> undef, <64 x i32> <i32 63, i32 62, i32 61, i32 60, i32 59, i32 58, i32 57, i32 56, i32 55, i32 54, i32 53, i32 52, i32 51, i32 50, i32 49, i32 48, i32 47, i32 46, i32 45, i32 44, i32 43, i32 42, i32 41, i32 40, i32 39, i32 38, i32 37, i32 36, i32 35, i32 34, i32 33, i32 32, i32 31, i32 30, i32 29, i32 28, i32 27, i32 26, i32 25, i32 24, i32 23, i32 20, i32 21, i32 20, i32 19, i32 18, i32 17, i32 16, i32 15, i32 14, i32 13, i32 12, i32 11, i32 10, i32 9, i32 8, i32 7, i32 6, i32 5, i32 4, i32 3, i32 2, i32 1, i32 0>
; AVX2-NEXT:  Cost Model: Found an estimated cost of 1 for instruction: ret void
;
; AVX512F-LABEL: 'test_vXi16'
; AVX512F-NEXT:  Cost Model: Found an estimated cost of 1 for instruction: %V32 = shufflevector <2 x i16> %src32, <2 x i16> undef, <2 x i32> <i32 1, i32 1>
; AVX512F-NEXT:  Cost Model: Found an estimated cost of 1 for instruction: %V64 = shufflevector <4 x i16> %src64, <4 x i16> undef, <4 x i32> <i32 2, i32 2, i32 1, i32 1>
; AVX512F-NEXT:  Cost Model: Found an estimated cost of 1 for instruction: %V128 = shufflevector <8 x i16> %src128, <8 x i16> undef, <8 x i32> <i32 7, i32 6, i32 6, i32 4, i32 3, i32 2, i32 1, i32 0>
; AVX512F-NEXT:  Cost Model: Found an estimated cost of 4 for instruction: %V256 = shufflevector <16 x i16> %src256, <16 x i16> undef, <16 x i32> <i32 15, i32 14, i32 13, i32 13, i32 11, i32 10, i32 9, i32 8, i32 7, i32 6, i32 5, i32 4, i32 3, i32 2, i32 1, i32 0>
; AVX512F-NEXT:  Cost Model: Found an estimated cost of 14 for instruction: %V512 = shufflevector <32 x i16> %src512, <32 x i16> undef, <32 x i32> <i32 31, i32 30, i32 20, i32 28, i32 27, i32 26, i32 25, i32 24, i32 23, i32 22, i32 21, i32 20, i32 19, i32 18, i32 17, i32 16, i32 15, i32 14, i32 13, i32 12, i32 11, i32 11, i32 9, i32 8, i32 7, i32 11, i32 5, i32 4, i32 3, i32 2, i32 1, i32 0>
; AVX512F-NEXT:  Cost Model: Found an estimated cost of 21 for instruction: %V1024 = shufflevector <64 x i16> %src1024, <64 x i16> undef, <64 x i32> <i32 63, i32 62, i32 61, i32 60, i32 59, i32 58, i32 57, i32 56, i32 55, i32 54, i32 53, i32 52, i32 51, i32 50, i32 49, i32 48, i32 47, i32 46, i32 45, i32 44, i32 43, i32 42, i32 41, i32 40, i32 39, i32 38, i32 37, i32 36, i32 35, i32 34, i32 33, i32 32, i32 31, i32 30, i32 29, i32 28, i32 27, i32 26, i32 25, i32 24, i32 23, i32 20, i32 21, i32 20, i32 19, i32 18, i32 17, i32 16, i32 15, i32 14, i32 13, i32 12, i32 11, i32 10, i32 9, i32 8, i32 7, i32 6, i32 5, i32 4, i32 3, i32 2, i32 1, i32 0>
; AVX512F-NEXT:  Cost Model: Found an estimated cost of 1 for instruction: ret void
;
; AVX512BW-LABEL: 'test_vXi16'
; AVX512BW-NEXT:  Cost Model: Found an estimated cost of 1 for instruction: %V32 = shufflevector <2 x i16> %src32, <2 x i16> undef, <2 x i32> <i32 1, i32 1>
; AVX512BW-NEXT:  Cost Model: Found an estimated cost of 1 for instruction: %V64 = shufflevector <4 x i16> %src64, <4 x i16> undef, <4 x i32> <i32 2, i32 2, i32 1, i32 1>
; AVX512BW-NEXT:  Cost Model: Found an estimated cost of 1 for instruction: %V128 = shufflevector <8 x i16> %src128, <8 x i16> undef, <8 x i32> <i32 7, i32 6, i32 6, i32 4, i32 3, i32 2, i32 1, i32 0>
; AVX512BW-NEXT:  Cost Model: Found an estimated cost of 2 for instruction: %V256 = shufflevector <16 x i16> %src256, <16 x i16> undef, <16 x i32> <i32 15, i32 14, i32 13, i32 13, i32 11, i32 10, i32 9, i32 8, i32 7, i32 6, i32 5, i32 4, i32 3, i32 2, i32 1, i32 0>
; AVX512BW-NEXT:  Cost Model: Found an estimated cost of 2 for instruction: %V512 = shufflevector <32 x i16> %src512, <32 x i16> undef, <32 x i32> <i32 31, i32 30, i32 20, i32 28, i32 27, i32 26, i32 25, i32 24, i32 23, i32 22, i32 21, i32 20, i32 19, i32 18, i32 17, i32 16, i32 15, i32 14, i32 13, i32 12, i32 11, i32 11, i32 9, i32 8, i32 7, i32 11, i32 5, i32 4, i32 3, i32 2, i32 1, i32 0>
; AVX512BW-NEXT:  Cost Model: Found an estimated cost of 4 for instruction: %V1024 = shufflevector <64 x i16> %src1024, <64 x i16> undef, <64 x i32> <i32 63, i32 62, i32 61, i32 60, i32 59, i32 58, i32 57, i32 56, i32 55, i32 54, i32 53, i32 52, i32 51, i32 50, i32 49, i32 48, i32 47, i32 46, i32 45, i32 44, i32 43, i32 42, i32 41, i32 40, i32 39, i32 38, i32 37, i32 36, i32 35, i32 34, i32 33, i32 32, i32 31, i32 30, i32 29, i32 28, i32 27, i32 26, i32 25, i32 24, i32 23, i32 20, i32 21, i32 20, i32 19, i32 18, i32 17, i32 16, i32 15, i32 14, i32 13, i32 12, i32 11, i32 10, i32 9, i32 8, i32 7, i32 6, i32 5, i32 4, i32 3, i32 2, i32 1, i32 0>
; AVX512BW-NEXT:  Cost Model: Found an estimated cost of 1 for instruction: ret void
;
; AVX512VBMI-LABEL: 'test_vXi16'
; AVX512VBMI-NEXT:  Cost Model: Found an estimated cost of 1 for instruction: %V32 = shufflevector <2 x i16> %src32, <2 x i16> undef, <2 x i32> <i32 1, i32 1>
; AVX512VBMI-NEXT:  Cost Model: Found an estimated cost of 1 for instruction: %V64 = shufflevector <4 x i16> %src64, <4 x i16> undef, <4 x i32> <i32 2, i32 2, i32 1, i32 1>
; AVX512VBMI-NEXT:  Cost Model: Found an estimated cost of 1 for instruction: %V128 = shufflevector <8 x i16> %src128, <8 x i16> undef, <8 x i32> <i32 7, i32 6, i32 6, i32 4, i32 3, i32 2, i32 1, i32 0>
; AVX512VBMI-NEXT:  Cost Model: Found an estimated cost of 2 for instruction: %V256 = shufflevector <16 x i16> %src256, <16 x i16> undef, <16 x i32> <i32 15, i32 14, i32 13, i32 13, i32 11, i32 10, i32 9, i32 8, i32 7, i32 6, i32 5, i32 4, i32 3, i32 2, i32 1, i32 0>
; AVX512VBMI-NEXT:  Cost Model: Found an estimated cost of 2 for instruction: %V512 = shufflevector <32 x i16> %src512, <32 x i16> undef, <32 x i32> <i32 31, i32 30, i32 20, i32 28, i32 27, i32 26, i32 25, i32 24, i32 23, i32 22, i32 21, i32 20, i32 19, i32 18, i32 17, i32 16, i32 15, i32 14, i32 13, i32 12, i32 11, i32 11, i32 9, i32 8, i32 7, i32 11, i32 5, i32 4, i32 3, i32 2, i32 1, i32 0>
; AVX512VBMI-NEXT:  Cost Model: Found an estimated cost of 4 for instruction: %V1024 = shufflevector <64 x i16> %src1024, <64 x i16> undef, <64 x i32> <i32 63, i32 62, i32 61, i32 60, i32 59, i32 58, i32 57, i32 56, i32 55, i32 54, i32 53, i32 52, i32 51, i32 50, i32 49, i32 48, i32 47, i32 46, i32 45, i32 44, i32 43, i32 42, i32 41, i32 40, i32 39, i32 38, i32 37, i32 36, i32 35, i32 34, i32 33, i32 32, i32 31, i32 30, i32 29, i32 28, i32 27, i32 26, i32 25, i32 24, i32 23, i32 20, i32 21, i32 20, i32 19, i32 18, i32 17, i32 16, i32 15, i32 14, i32 13, i32 12, i32 11, i32 10, i32 9, i32 8, i32 7, i32 6, i32 5, i32 4, i32 3, i32 2, i32 1, i32 0>
; AVX512VBMI-NEXT:  Cost Model: Found an estimated cost of 1 for instruction: ret void
;
  %V32  = shufflevector <2 x i16> %src32, <2 x i16> undef, <2 x i32> <i32 1, i32 1>
  %V64  = shufflevector <4 x i16> %src64, <4 x i16> undef, <4 x i32> <i32 2, i32 2, i32 1, i32 1>
  %V128 = shufflevector <8 x i16> %src128, <8 x i16> undef, <8 x i32> <i32 7, i32 6, i32 6, i32 4, i32 3, i32 2, i32 1, i32 0>
  %V256 = shufflevector <16 x i16> %src256, <16 x i16> undef, <16 x i32> <i32 15, i32 14, i32 13, i32 13, i32 11, i32 10, i32 9, i32 8, i32 7, i32 6, i32 5, i32 4, i32 3, i32 2, i32 1, i32 0>
  %V512 = shufflevector <32 x i16> %src512, <32 x i16> undef, <32 x i32> <i32 31, i32 30, i32 20, i32 28, i32 27, i32 26, i32 25, i32 24, i32 23, i32 22, i32 21, i32 20, i32 19, i32 18, i32 17, i32 16, i32 15, i32 14, i32 13, i32 12, i32 11, i32 11, i32 9, i32 8, i32 7, i32 11, i32 5, i32 4, i32 3, i32 2, i32 1, i32 0>
  %V1024 = shufflevector <64 x i16> %src1024, <64 x i16> undef, <64 x i32> <i32 63, i32 62, i32 61, i32 60, i32 59, i32 58, i32 57, i32 56, i32 55, i32 54, i32 53, i32 52, i32 51, i32 50, i32 49, i32 48, i32 47, i32 46, i32 45, i32 44, i32 43, i32 42, i32 41, i32 40, i32 39, i32 38, i32 37, i32 36, i32 35, i32 34, i32 33, i32 32, i32 31, i32 30, i32 29, i32 28, i32 27, i32 26, i32 25, i32 24, i32 23, i32 20, i32 21, i32 20, i32 19, i32 18, i32 17, i32 16, i32 15, i32 14, i32 13, i32 12, i32 11, i32 10, i32 9, i32 8, i32 7, i32 6, i32 5, i32 4, i32 3, i32 2, i32 1, i32 0>
  ret void
}

define void @test_vXi8(<2 x i8> %src16, <4 x i8> %src32, <8 x i8> %src64, <16 x i8> %src128, <32 x i8> %src256, <64 x i8> %src512) {
; SSE2-LABEL: 'test_vXi8'
; SSE2-NEXT:  Cost Model: Found an estimated cost of 1 for instruction: %V16 = shufflevector <2 x i8> %src16, <2 x i8> undef, <2 x i32> <i32 1, i32 1>
; SSE2-NEXT:  Cost Model: Found an estimated cost of 3 for instruction: %V32 = shufflevector <4 x i8> %src32, <4 x i8> undef, <4 x i32> <i32 3, i32 3, i32 1, i32 1>
; SSE2-NEXT:  Cost Model: Found an estimated cost of 5 for instruction: %V64 = shufflevector <8 x i8> %src64, <8 x i8> undef, <8 x i32> <i32 7, i32 7, i32 5, i32 5, i32 3, i32 3, i32 1, i32 1>
; SSE2-NEXT:  Cost Model: Found an estimated cost of 10 for instruction: %V128 = shufflevector <16 x i8> %src128, <16 x i8> undef, <16 x i32> <i32 15, i32 14, i32 13, i32 12, i32 11, i32 10, i32 11, i32 8, i32 7, i32 6, i32 5, i32 4, i32 3, i32 2, i32 1, i32 0>
; SSE2-NEXT:  Cost Model: Found an estimated cost of 19 for instruction: %V256 = shufflevector <32 x i8> %src256, <32 x i8> undef, <32 x i32> <i32 31, i32 30, i32 29, i32 28, i32 27, i32 26, i32 25, i32 24, i32 23, i32 22, i32 21, i32 20, i32 19, i32 18, i32 17, i32 16, i32 15, i32 14, i32 13, i32 12, i32 11, i32 10, i32 8, i32 8, i32 7, i32 6, i32 8, i32 4, i32 3, i32 2, i32 1, i32 0>
; SSE2-NEXT:  Cost Model: Found an estimated cost of 37 for instruction: %V512 = shufflevector <64 x i8> %src512, <64 x i8> undef, <64 x i32> <i32 63, i32 62, i32 61, i32 60, i32 59, i32 58, i32 57, i32 56, i32 55, i32 54, i32 53, i32 52, i32 51, i32 50, i32 49, i32 48, i32 47, i32 46, i32 45, i32 44, i32 43, i32 42, i32 41, i32 40, i32 39, i32 38, i32 37, i32 36, i32 35, i32 34, i32 33, i32 32, i32 31, i32 30, i32 29, i32 28, i32 27, i32 26, i32 25, i32 24, i32 23, i32 20, i32 21, i32 20, i32 19, i32 18, i32 17, i32 16, i32 15, i32 14, i32 13, i32 12, i32 11, i32 10, i32 9, i32 8, i32 7, i32 6, i32 5, i32 4, i32 3, i32 2, i32 1, i32 0>
; SSE2-NEXT:  Cost Model: Found an estimated cost of 1 for instruction: ret void
;
; SSSE3-LABEL: 'test_vXi8'
; SSSE3-NEXT:  Cost Model: Found an estimated cost of 1 for instruction: %V16 = shufflevector <2 x i8> %src16, <2 x i8> undef, <2 x i32> <i32 1, i32 1>
; SSSE3-NEXT:  Cost Model: Found an estimated cost of 1 for instruction: %V32 = shufflevector <4 x i8> %src32, <4 x i8> undef, <4 x i32> <i32 3, i32 3, i32 1, i32 1>
; SSSE3-NEXT:  Cost Model: Found an estimated cost of 1 for instruction: %V64 = shufflevector <8 x i8> %src64, <8 x i8> undef, <8 x i32> <i32 7, i32 7, i32 5, i32 5, i32 3, i32 3, i32 1, i32 1>
; SSSE3-NEXT:  Cost Model: Found an estimated cost of 1 for instruction: %V128 = shufflevector <16 x i8> %src128, <16 x i8> undef, <16 x i32> <i32 15, i32 14, i32 13, i32 12, i32 11, i32 10, i32 11, i32 8, i32 7, i32 6, i32 5, i32 4, i32 3, i32 2, i32 1, i32 0>
; SSSE3-NEXT:  Cost Model: Found an estimated cost of 2 for instruction: %V256 = shufflevector <32 x i8> %src256, <32 x i8> undef, <32 x i32> <i32 31, i32 30, i32 29, i32 28, i32 27, i32 26, i32 25, i32 24, i32 23, i32 22, i32 21, i32 20, i32 19, i32 18, i32 17, i32 16, i32 15, i32 14, i32 13, i32 12, i32 11, i32 10, i32 8, i32 8, i32 7, i32 6, i32 8, i32 4, i32 3, i32 2, i32 1, i32 0>
; SSSE3-NEXT:  Cost Model: Found an estimated cost of 4 for instruction: %V512 = shufflevector <64 x i8> %src512, <64 x i8> undef, <64 x i32> <i32 63, i32 62, i32 61, i32 60, i32 59, i32 58, i32 57, i32 56, i32 55, i32 54, i32 53, i32 52, i32 51, i32 50, i32 49, i32 48, i32 47, i32 46, i32 45, i32 44, i32 43, i32 42, i32 41, i32 40, i32 39, i32 38, i32 37, i32 36, i32 35, i32 34, i32 33, i32 32, i32 31, i32 30, i32 29, i32 28, i32 27, i32 26, i32 25, i32 24, i32 23, i32 20, i32 21, i32 20, i32 19, i32 18, i32 17, i32 16, i32 15, i32 14, i32 13, i32 12, i32 11, i32 10, i32 9, i32 8, i32 7, i32 6, i32 5, i32 4, i32 3, i32 2, i32 1, i32 0>
; SSSE3-NEXT:  Cost Model: Found an estimated cost of 1 for instruction: ret void
;
; SSE42-LABEL: 'test_vXi8'
; SSE42-NEXT:  Cost Model: Found an estimated cost of 1 for instruction: %V16 = shufflevector <2 x i8> %src16, <2 x i8> undef, <2 x i32> <i32 1, i32 1>
; SSE42-NEXT:  Cost Model: Found an estimated cost of 1 for instruction: %V32 = shufflevector <4 x i8> %src32, <4 x i8> undef, <4 x i32> <i32 3, i32 3, i32 1, i32 1>
; SSE42-NEXT:  Cost Model: Found an estimated cost of 1 for instruction: %V64 = shufflevector <8 x i8> %src64, <8 x i8> undef, <8 x i32> <i32 7, i32 7, i32 5, i32 5, i32 3, i32 3, i32 1, i32 1>
; SSE42-NEXT:  Cost Model: Found an estimated cost of 1 for instruction: %V128 = shufflevector <16 x i8> %src128, <16 x i8> undef, <16 x i32> <i32 15, i32 14, i32 13, i32 12, i32 11, i32 10, i32 11, i32 8, i32 7, i32 6, i32 5, i32 4, i32 3, i32 2, i32 1, i32 0>
; SSE42-NEXT:  Cost Model: Found an estimated cost of 2 for instruction: %V256 = shufflevector <32 x i8> %src256, <32 x i8> undef, <32 x i32> <i32 31, i32 30, i32 29, i32 28, i32 27, i32 26, i32 25, i32 24, i32 23, i32 22, i32 21, i32 20, i32 19, i32 18, i32 17, i32 16, i32 15, i32 14, i32 13, i32 12, i32 11, i32 10, i32 8, i32 8, i32 7, i32 6, i32 8, i32 4, i32 3, i32 2, i32 1, i32 0>
; SSE42-NEXT:  Cost Model: Found an estimated cost of 4 for instruction: %V512 = shufflevector <64 x i8> %src512, <64 x i8> undef, <64 x i32> <i32 63, i32 62, i32 61, i32 60, i32 59, i32 58, i32 57, i32 56, i32 55, i32 54, i32 53, i32 52, i32 51, i32 50, i32 49, i32 48, i32 47, i32 46, i32 45, i32 44, i32 43, i32 42, i32 41, i32 40, i32 39, i32 38, i32 37, i32 36, i32 35, i32 34, i32 33, i32 32, i32 31, i32 30, i32 29, i32 28, i32 27, i32 26, i32 25, i32 24, i32 23, i32 20, i32 21, i32 20, i32 19, i32 18, i32 17, i32 16, i32 15, i32 14, i32 13, i32 12, i32 11, i32 10, i32 9, i32 8, i32 7, i32 6, i32 5, i32 4, i32 3, i32 2, i32 1, i32 0>
; SSE42-NEXT:  Cost Model: Found an estimated cost of 1 for instruction: ret void
;
; XOP-LABEL: 'test_vXi8'
; XOP-NEXT:  Cost Model: Found an estimated cost of 1 for instruction: %V16 = shufflevector <2 x i8> %src16, <2 x i8> undef, <2 x i32> <i32 1, i32 1>
; XOP-NEXT:  Cost Model: Found an estimated cost of 1 for instruction: %V32 = shufflevector <4 x i8> %src32, <4 x i8> undef, <4 x i32> <i32 3, i32 3, i32 1, i32 1>
; XOP-NEXT:  Cost Model: Found an estimated cost of 1 for instruction: %V64 = shufflevector <8 x i8> %src64, <8 x i8> undef, <8 x i32> <i32 7, i32 7, i32 5, i32 5, i32 3, i32 3, i32 1, i32 1>
; XOP-NEXT:  Cost Model: Found an estimated cost of 1 for instruction: %V128 = shufflevector <16 x i8> %src128, <16 x i8> undef, <16 x i32> <i32 15, i32 14, i32 13, i32 12, i32 11, i32 10, i32 11, i32 8, i32 7, i32 6, i32 5, i32 4, i32 3, i32 2, i32 1, i32 0>
; XOP-NEXT:  Cost Model: Found an estimated cost of 4 for instruction: %V256 = shufflevector <32 x i8> %src256, <32 x i8> undef, <32 x i32> <i32 31, i32 30, i32 29, i32 28, i32 27, i32 26, i32 25, i32 24, i32 23, i32 22, i32 21, i32 20, i32 19, i32 18, i32 17, i32 16, i32 15, i32 14, i32 13, i32 12, i32 11, i32 10, i32 8, i32 8, i32 7, i32 6, i32 8, i32 4, i32 3, i32 2, i32 1, i32 0>
; XOP-NEXT:  Cost Model: Found an estimated cost of 8 for instruction: %V512 = shufflevector <64 x i8> %src512, <64 x i8> undef, <64 x i32> <i32 63, i32 62, i32 61, i32 60, i32 59, i32 58, i32 57, i32 56, i32 55, i32 54, i32 53, i32 52, i32 51, i32 50, i32 49, i32 48, i32 47, i32 46, i32 45, i32 44, i32 43, i32 42, i32 41, i32 40, i32 39, i32 38, i32 37, i32 36, i32 35, i32 34, i32 33, i32 32, i32 31, i32 30, i32 29, i32 28, i32 27, i32 26, i32 25, i32 24, i32 23, i32 20, i32 21, i32 20, i32 19, i32 18, i32 17, i32 16, i32 15, i32 14, i32 13, i32 12, i32 11, i32 10, i32 9, i32 8, i32 7, i32 6, i32 5, i32 4, i32 3, i32 2, i32 1, i32 0>
; XOP-NEXT:  Cost Model: Found an estimated cost of 1 for instruction: ret void
;
; AVX1-LABEL: 'test_vXi8'
; AVX1-NEXT:  Cost Model: Found an estimated cost of 1 for instruction: %V16 = shufflevector <2 x i8> %src16, <2 x i8> undef, <2 x i32> <i32 1, i32 1>
; AVX1-NEXT:  Cost Model: Found an estimated cost of 1 for instruction: %V32 = shufflevector <4 x i8> %src32, <4 x i8> undef, <4 x i32> <i32 3, i32 3, i32 1, i32 1>
; AVX1-NEXT:  Cost Model: Found an estimated cost of 1 for instruction: %V64 = shufflevector <8 x i8> %src64, <8 x i8> undef, <8 x i32> <i32 7, i32 7, i32 5, i32 5, i32 3, i32 3, i32 1, i32 1>
; AVX1-NEXT:  Cost Model: Found an estimated cost of 1 for instruction: %V128 = shufflevector <16 x i8> %src128, <16 x i8> undef, <16 x i32> <i32 15, i32 14, i32 13, i32 12, i32 11, i32 10, i32 11, i32 8, i32 7, i32 6, i32 5, i32 4, i32 3, i32 2, i32 1, i32 0>
; AVX1-NEXT:  Cost Model: Found an estimated cost of 8 for instruction: %V256 = shufflevector <32 x i8> %src256, <32 x i8> undef, <32 x i32> <i32 31, i32 30, i32 29, i32 28, i32 27, i32 26, i32 25, i32 24, i32 23, i32 22, i32 21, i32 20, i32 19, i32 18, i32 17, i32 16, i32 15, i32 14, i32 13, i32 12, i32 11, i32 10, i32 8, i32 8, i32 7, i32 6, i32 8, i32 4, i32 3, i32 2, i32 1, i32 0>
; AVX1-NEXT:  Cost Model: Found an estimated cost of 12 for instruction: %V512 = shufflevector <64 x i8> %src512, <64 x i8> undef, <64 x i32> <i32 63, i32 62, i32 61, i32 60, i32 59, i32 58, i32 57, i32 56, i32 55, i32 54, i32 53, i32 52, i32 51, i32 50, i32 49, i32 48, i32 47, i32 46, i32 45, i32 44, i32 43, i32 42, i32 41, i32 40, i32 39, i32 38, i32 37, i32 36, i32 35, i32 34, i32 33, i32 32, i32 31, i32 30, i32 29, i32 28, i32 27, i32 26, i32 25, i32 24, i32 23, i32 20, i32 21, i32 20, i32 19, i32 18, i32 17, i32 16, i32 15, i32 14, i32 13, i32 12, i32 11, i32 10, i32 9, i32 8, i32 7, i32 6, i32 5, i32 4, i32 3, i32 2, i32 1, i32 0>
; AVX1-NEXT:  Cost Model: Found an estimated cost of 1 for instruction: ret void
;
; AVX2-LABEL: 'test_vXi8'
; AVX2-NEXT:  Cost Model: Found an estimated cost of 1 for instruction: %V16 = shufflevector <2 x i8> %src16, <2 x i8> undef, <2 x i32> <i32 1, i32 1>
; AVX2-NEXT:  Cost Model: Found an estimated cost of 1 for instruction: %V32 = shufflevector <4 x i8> %src32, <4 x i8> undef, <4 x i32> <i32 3, i32 3, i32 1, i32 1>
; AVX2-NEXT:  Cost Model: Found an estimated cost of 1 for instruction: %V64 = shufflevector <8 x i8> %src64, <8 x i8> undef, <8 x i32> <i32 7, i32 7, i32 5, i32 5, i32 3, i32 3, i32 1, i32 1>
; AVX2-NEXT:  Cost Model: Found an estimated cost of 1 for instruction: %V128 = shufflevector <16 x i8> %src128, <16 x i8> undef, <16 x i32> <i32 15, i32 14, i32 13, i32 12, i32 11, i32 10, i32 11, i32 8, i32 7, i32 6, i32 5, i32 4, i32 3, i32 2, i32 1, i32 0>
; AVX2-NEXT:  Cost Model: Found an estimated cost of 4 for instruction: %V256 = shufflevector <32 x i8> %src256, <32 x i8> undef, <32 x i32> <i32 31, i32 30, i32 29, i32 28, i32 27, i32 26, i32 25, i32 24, i32 23, i32 22, i32 21, i32 20, i32 19, i32 18, i32 17, i32 16, i32 15, i32 14, i32 13, i32 12, i32 11, i32 10, i32 8, i32 8, i32 7, i32 6, i32 8, i32 4, i32 3, i32 2, i32 1, i32 0>
; AVX2-NEXT:  Cost Model: Found an estimated cost of 6 for instruction: %V512 = shufflevector <64 x i8> %src512, <64 x i8> undef, <64 x i32> <i32 63, i32 62, i32 61, i32 60, i32 59, i32 58, i32 57, i32 56, i32 55, i32 54, i32 53, i32 52, i32 51, i32 50, i32 49, i32 48, i32 47, i32 46, i32 45, i32 44, i32 43, i32 42, i32 41, i32 40, i32 39, i32 38, i32 37, i32 36, i32 35, i32 34, i32 33, i32 32, i32 31, i32 30, i32 29, i32 28, i32 27, i32 26, i32 25, i32 24, i32 23, i32 20, i32 21, i32 20, i32 19, i32 18, i32 17, i32 16, i32 15, i32 14, i32 13, i32 12, i32 11, i32 10, i32 9, i32 8, i32 7, i32 6, i32 5, i32 4, i32 3, i32 2, i32 1, i32 0>
; AVX2-NEXT:  Cost Model: Found an estimated cost of 1 for instruction: ret void
;
; AVX512F-LABEL: 'test_vXi8'
; AVX512F-NEXT:  Cost Model: Found an estimated cost of 1 for instruction: %V16 = shufflevector <2 x i8> %src16, <2 x i8> undef, <2 x i32> <i32 1, i32 1>
; AVX512F-NEXT:  Cost Model: Found an estimated cost of 1 for instruction: %V32 = shufflevector <4 x i8> %src32, <4 x i8> undef, <4 x i32> <i32 3, i32 3, i32 1, i32 1>
; AVX512F-NEXT:  Cost Model: Found an estimated cost of 1 for instruction: %V64 = shufflevector <8 x i8> %src64, <8 x i8> undef, <8 x i32> <i32 7, i32 7, i32 5, i32 5, i32 3, i32 3, i32 1, i32 1>
; AVX512F-NEXT:  Cost Model: Found an estimated cost of 1 for instruction: %V128 = shufflevector <16 x i8> %src128, <16 x i8> undef, <16 x i32> <i32 15, i32 14, i32 13, i32 12, i32 11, i32 10, i32 11, i32 8, i32 7, i32 6, i32 5, i32 4, i32 3, i32 2, i32 1, i32 0>
; AVX512F-NEXT:  Cost Model: Found an estimated cost of 4 for instruction: %V256 = shufflevector <32 x i8> %src256, <32 x i8> undef, <32 x i32> <i32 31, i32 30, i32 29, i32 28, i32 27, i32 26, i32 25, i32 24, i32 23, i32 22, i32 21, i32 20, i32 19, i32 18, i32 17, i32 16, i32 15, i32 14, i32 13, i32 12, i32 11, i32 10, i32 8, i32 8, i32 7, i32 6, i32 8, i32 4, i32 3, i32 2, i32 1, i32 0>
; AVX512F-NEXT:  Cost Model: Found an estimated cost of 14 for instruction: %V512 = shufflevector <64 x i8> %src512, <64 x i8> undef, <64 x i32> <i32 63, i32 62, i32 61, i32 60, i32 59, i32 58, i32 57, i32 56, i32 55, i32 54, i32 53, i32 52, i32 51, i32 50, i32 49, i32 48, i32 47, i32 46, i32 45, i32 44, i32 43, i32 42, i32 41, i32 40, i32 39, i32 38, i32 37, i32 36, i32 35, i32 34, i32 33, i32 32, i32 31, i32 30, i32 29, i32 28, i32 27, i32 26, i32 25, i32 24, i32 23, i32 20, i32 21, i32 20, i32 19, i32 18, i32 17, i32 16, i32 15, i32 14, i32 13, i32 12, i32 11, i32 10, i32 9, i32 8, i32 7, i32 6, i32 5, i32 4, i32 3, i32 2, i32 1, i32 0>
; AVX512F-NEXT:  Cost Model: Found an estimated cost of 1 for instruction: ret void
;
; AVX512BW-LABEL: 'test_vXi8'
; AVX512BW-NEXT:  Cost Model: Found an estimated cost of 1 for instruction: %V16 = shufflevector <2 x i8> %src16, <2 x i8> undef, <2 x i32> <i32 1, i32 1>
; AVX512BW-NEXT:  Cost Model: Found an estimated cost of 1 for instruction: %V32 = shufflevector <4 x i8> %src32, <4 x i8> undef, <4 x i32> <i32 3, i32 3, i32 1, i32 1>
; AVX512BW-NEXT:  Cost Model: Found an estimated cost of 1 for instruction: %V64 = shufflevector <8 x i8> %src64, <8 x i8> undef, <8 x i32> <i32 7, i32 7, i32 5, i32 5, i32 3, i32 3, i32 1, i32 1>
; AVX512BW-NEXT:  Cost Model: Found an estimated cost of 1 for instruction: %V128 = shufflevector <16 x i8> %src128, <16 x i8> undef, <16 x i32> <i32 15, i32 14, i32 13, i32 12, i32 11, i32 10, i32 11, i32 8, i32 7, i32 6, i32 5, i32 4, i32 3, i32 2, i32 1, i32 0>
; AVX512BW-NEXT:  Cost Model: Found an estimated cost of 4 for instruction: %V256 = shufflevector <32 x i8> %src256, <32 x i8> undef, <32 x i32> <i32 31, i32 30, i32 29, i32 28, i32 27, i32 26, i32 25, i32 24, i32 23, i32 22, i32 21, i32 20, i32 19, i32 18, i32 17, i32 16, i32 15, i32 14, i32 13, i32 12, i32 11, i32 10, i32 8, i32 8, i32 7, i32 6, i32 8, i32 4, i32 3, i32 2, i32 1, i32 0>
; AVX512BW-NEXT:  Cost Model: Found an estimated cost of 8 for instruction: %V512 = shufflevector <64 x i8> %src512, <64 x i8> undef, <64 x i32> <i32 63, i32 62, i32 61, i32 60, i32 59, i32 58, i32 57, i32 56, i32 55, i32 54, i32 53, i32 52, i32 51, i32 50, i32 49, i32 48, i32 47, i32 46, i32 45, i32 44, i32 43, i32 42, i32 41, i32 40, i32 39, i32 38, i32 37, i32 36, i32 35, i32 34, i32 33, i32 32, i32 31, i32 30, i32 29, i32 28, i32 27, i32 26, i32 25, i32 24, i32 23, i32 20, i32 21, i32 20, i32 19, i32 18, i32 17, i32 16, i32 15, i32 14, i32 13, i32 12, i32 11, i32 10, i32 9, i32 8, i32 7, i32 6, i32 5, i32 4, i32 3, i32 2, i32 1, i32 0>
; AVX512BW-NEXT:  Cost Model: Found an estimated cost of 1 for instruction: ret void
;
; AVX512VBMI-LABEL: 'test_vXi8'
; AVX512VBMI-NEXT:  Cost Model: Found an estimated cost of 1 for instruction: %V16 = shufflevector <2 x i8> %src16, <2 x i8> undef, <2 x i32> <i32 1, i32 1>
; AVX512VBMI-NEXT:  Cost Model: Found an estimated cost of 1 for instruction: %V32 = shufflevector <4 x i8> %src32, <4 x i8> undef, <4 x i32> <i32 3, i32 3, i32 1, i32 1>
; AVX512VBMI-NEXT:  Cost Model: Found an estimated cost of 1 for instruction: %V64 = shufflevector <8 x i8> %src64, <8 x i8> undef, <8 x i32> <i32 7, i32 7, i32 5, i32 5, i32 3, i32 3, i32 1, i32 1>
; AVX512VBMI-NEXT:  Cost Model: Found an estimated cost of 1 for instruction: %V128 = shufflevector <16 x i8> %src128, <16 x i8> undef, <16 x i32> <i32 15, i32 14, i32 13, i32 12, i32 11, i32 10, i32 11, i32 8, i32 7, i32 6, i32 5, i32 4, i32 3, i32 2, i32 1, i32 0>
; AVX512VBMI-NEXT:  Cost Model: Found an estimated cost of 1 for instruction: %V256 = shufflevector <32 x i8> %src256, <32 x i8> undef, <32 x i32> <i32 31, i32 30, i32 29, i32 28, i32 27, i32 26, i32 25, i32 24, i32 23, i32 22, i32 21, i32 20, i32 19, i32 18, i32 17, i32 16, i32 15, i32 14, i32 13, i32 12, i32 11, i32 10, i32 8, i32 8, i32 7, i32 6, i32 8, i32 4, i32 3, i32 2, i32 1, i32 0>
; AVX512VBMI-NEXT:  Cost Model: Found an estimated cost of 1 for instruction: %V512 = shufflevector <64 x i8> %src512, <64 x i8> undef, <64 x i32> <i32 63, i32 62, i32 61, i32 60, i32 59, i32 58, i32 57, i32 56, i32 55, i32 54, i32 53, i32 52, i32 51, i32 50, i32 49, i32 48, i32 47, i32 46, i32 45, i32 44, i32 43, i32 42, i32 41, i32 40, i32 39, i32 38, i32 37, i32 36, i32 35, i32 34, i32 33, i32 32, i32 31, i32 30, i32 29, i32 28, i32 27, i32 26, i32 25, i32 24, i32 23, i32 20, i32 21, i32 20, i32 19, i32 18, i32 17, i32 16, i32 15, i32 14, i32 13, i32 12, i32 11, i32 10, i32 9, i32 8, i32 7, i32 6, i32 5, i32 4, i32 3, i32 2, i32 1, i32 0>
; AVX512VBMI-NEXT:  Cost Model: Found an estimated cost of 1 for instruction: ret void
;
  %V16  = shufflevector <2 x i8> %src16, <2 x i8> undef, <2 x i32> <i32 1, i32 1>
  %V32  = shufflevector <4 x i8> %src32, <4 x i8> undef, <4 x i32> <i32 3, i32 3, i32 1, i32 1>
  %V64  = shufflevector <8 x i8> %src64, <8 x i8> undef, <8 x i32> <i32 7, i32 7, i32 5, i32 5, i32 3, i32 3, i32 1, i32 1>
  %V128 = shufflevector <16 x i8> %src128, <16 x i8> undef, <16 x i32> <i32 15, i32 14, i32 13, i32 12, i32 11, i32 10, i32 11, i32 8, i32 7, i32 6, i32 5, i32 4, i32 3, i32 2, i32 1, i32 0>
  %V256 = shufflevector <32 x i8> %src256, <32 x i8> undef, <32 x i32> <i32 31, i32 30, i32 29, i32 28, i32 27, i32 26, i32 25, i32 24, i32 23, i32 22, i32 21, i32 20, i32 19, i32 18, i32 17, i32 16, i32 15, i32 14, i32 13, i32 12, i32 11, i32 10, i32 8, i32 8, i32 7, i32 6, i32 8, i32 4, i32 3, i32 2, i32 1, i32 0>
  %V512 = shufflevector <64 x i8> %src512, <64 x i8> undef, <64 x i32> <i32 63, i32 62, i32 61, i32 60, i32 59, i32 58, i32 57, i32 56, i32 55, i32 54, i32 53, i32 52, i32 51, i32 50, i32 49, i32 48, i32 47, i32 46, i32 45, i32 44, i32 43, i32 42, i32 41, i32 40, i32 39, i32 38, i32 37, i32 36, i32 35, i32 34, i32 33, i32 32, i32 31, i32 30, i32 29, i32 28, i32 27, i32 26, i32 25, i32 24, i32 23, i32 20, i32 21, i32 20, i32 19, i32 18, i32 17, i32 16, i32 15, i32 14, i32 13, i32 12, i32 11, i32 10, i32 9, i32 8, i32 7, i32 6, i32 5, i32 4, i32 3, i32 2, i32 1, i32 0>
  ret void
}

;
; Test some Identity Shuffles
;

define void @identity_vXf32(<4 x float> %a128, <4 x float> %b128, <8 x float> %a256, <8 x float> %b256, <16 x float> %a512, <16 x float> %b512) {
; CHECK-LABEL: 'identity_vXf32'
; CHECK-NEXT:  Cost Model: Found an estimated cost of 0 for instruction: %V128 = shufflevector <4 x float> %a128, <4 x float> %b128, <4 x i32> <i32 0, i32 undef, i32 2, i32 undef>
; CHECK-NEXT:  Cost Model: Found an estimated cost of 0 for instruction: %V256 = shufflevector <8 x float> %a256, <8 x float> %b256, <8 x i32> <i32 8, i32 9, i32 10, i32 11, i32 undef, i32 undef, i32 undef, i32 undef>
; CHECK-NEXT:  Cost Model: Found an estimated cost of 0 for instruction: %V512 = shufflevector <16 x float> %a512, <16 x float> %b512, <16 x i32> <i32 0, i32 undef, i32 2, i32 undef, i32 4, i32 undef, i32 6, i32 7, i32 8, i32 9, i32 10, i32 11, i32 12, i32 13, i32 14, i32 undef>
; CHECK-NEXT:  Cost Model: Found an estimated cost of 1 for instruction: ret void
;
  %V128 = shufflevector <4 x float> %a128, <4 x float> %b128, <4 x i32> <i32 0, i32 undef, i32 2, i32 undef>
  %V256 = shufflevector <8 x float> %a256, <8 x float> %b256, <8 x i32> <i32 8, i32 9, i32 10, i32 11, i32 undef, i32 undef, i32 undef, i32 undef>
  %V512 = shufflevector <16 x float> %a512, <16 x float> %b512, <16 x i32> <i32 0, i32 undef, i32 2, i32 undef, i32 4, i32 undef, i32 6, i32 7, i32 8, i32 9, i32 10, i32 11, i32 12, i32 13, i32 14, i32 undef>
  ret void
}
